[
 {
   "codigo": "5095-MCU-65788",
   "nombre": "MCU-ESP32",
   "descripcion": "Módulo WIFI MCU-ESP32",
   "categoria": "Microcontroladores",
   "marca": "Generica",
   "imagen": "https://d3ugyf2ht6aenh.cloudfront.net/stores/975/836/products/969354-mla29504300062_022019-o-6471daa9846d12a71915565093292622-640-0.jpg",
   "hoja_datos": "https://www.microelectronicash.com/downloads/ESP32_MANUAL.pdf",
   "stock": 100,
   "precio": 1600,
   "fecha": "11-02-22",
   "hora": "21:36"
 },
 {
   "codigo": "1029-LLP-78296",
   "nombre": "Teclado Gamer",
   "descripcion": "Teclado Gamer HP",
   "categoria": "Gamer",
   "marca": "HP",
   "imagen": "https://http2.mlstatic.com/D_NQ_NP_800476-MLA42702614097_072020-O.webp",
   "hoja_datos": "https://www.megga.com.ar/img_productos/06291636_ManualdeTecladoXK800c.pdf",
   "stock": 50,
   "precio": 4500,
   "fecha": "12-02-22",
   "hora": "22:36"
 },
 {
   "codigo": "9182-LLOSS-8279",
   "nombre": "Monitor Samsung 32 ''",
   "descripcion": "Monitor 32 ''",
   "categoria": "Monitores",
   "marca": "Samsung",
   "imagen": "https://http2.mlstatic.com/D_NQ_NP_848414-MLA49569762083_042022-O.jpg",
   "hoja_datos": "https://displaysolutions.samsung.com/pdf/manual/2755/BN46-00575A-Spa.pdf",
   "stock": 32,
   "precio": 9880,
   "fecha": "13-02-22",
   "hora": "23:36"
 },
 {
   "codigo": "2788-JSSAS-2928",
   "nombre": "Notebook Asus juki-p",
   "descripcion": "Notebook Intel i-3",
   "categoria": "Notebook",
   "marca": "Asus",
   "imagen": "https://medias.musimundo.com/medias/00503051-145356-145356-01-145356-01.jpg-size515?context=bWFzdGVyfGltYWdlc3w3ODY3MnxpbWFnZS9qcGVnfGg4My9oN2MvMTAzNTIyNzg2MzQ1MjYvMDA1MDMwNTEtMTQ1MzU2LTE0NTM1Nl8wMS0xNDUzNTZfMDEuanBnX3NpemU1MTV8MGNjOTZhOWFkMWI2ODEwOTY5NWRmYWZmNmM2ZjE3ZTIwYTE0YWQyYmMzNWY5YzBmZjNjMmYwNWEyNzc1NDVjYg",
   "hoja_datos": "https://www.asus.com/event/2019/productguide/bn/December-2019-April-2020.pdf",
   "stock": 22,
   "precio": 60998,
   "fecha": "14-02-22",
   "hora": "00:36"
 },
 {
   "codigo": "2827-JAUS-887",
   "nombre": "Notebook Hukio ",
   "descripcion": "Notebook Japonesa 2da Generación",
   "categoria": "Notebook",
   "marca": "Hukio",
   "imagen": "https://medias.musimundo.com/medias/00503051-145356-145356-01-145356-01.jpg-size515?context=bWFzdGVyfGltYWdlc3w3ODY3MnxpbWFnZS9qcGVnfGg4My9oN2MvMTAzNTIyNzg2MzQ1MjYvMDA1MDMwNTEtMTQ1MzU2LTE0NTM1Nl8wMS0xNDUzNTZfMDEuanBnX3NpemU1MTV8MGNjOTZhOWFkMWI2ODEwOTY5NWRmYWZmNmM2ZjE3ZTIwYTE0YWQyYmMzNWY5YzBmZjNjMmYwNWEyNzc1NDVjYg",
   "hoja_datos": "https://www.asus.com/event/2019/productguide/bn/December-2019-April-2020.pdf",
   "stock": 12,
   "precio": 43098,
   "fecha": "15-02-22",
   "hora": "01:36"
 },
 {
   "codigo": "3782-SHDGT-28292",
   "nombre": "SmartPhone xperia LLU-2",
   "descripcion": "Celular Alta Gama",
   "categoria": "Celulares",
   "marca": "Xperia",
   "imagen": "https://www.clarin.com/img/2021/04/14/sony-presento-la-tercera-generacion___6UVIUaEWO_340x340__1.jpg",
   "hoja_datos": "https://descargas.mundo-r.com/descargas/es/manual-de-sony-xperia-x",
   "stock": 22,
   "precio": 34045,
   "fecha": "16-02-22",
   "hora": "02:36"
 },
 {
   "codigo": "85923-DDD-221",
   "nombre": "SmartPhone Samsung AJK-88",
   "descripcion": "Celular Alta Gama",
   "categoria": "Celulares",
   "marca": "Samsung",
   "imagen": "https://medias.musimundo.com/medias/00534004-145895-145895-01-145895-01.jpg-size515?context=bWFzdGVyfGltYWdlc3w0Nzc5OHxpbWFnZS9qcGVnfGg2YS9oNzQvMTAzNzA1MzQ0NDA5OTAvMDA1MzQwMDQtMTQ1ODk1LTE0NTg5NV8wMS0xNDU4OTVfMDEuanBnX3NpemU1MTV8ZWJiOGIwYTg0MDVlZWVkMDIzZDYyZmQ2YTQ4N2Y1MTExNzRjNDNkMTZkYzFlZDhiZTU5Y2ZkMDk2YzliZWE4YQ",
   "hoja_datos": "https://www.gsmarena.com/samsung_galaxy_tab_a8_10_5_(2021)-11265.php",
   "stock": 21,
   "precio": 43077,
   "fecha": "17-02-22",
   "hora": "03:36"
 },
 {
   "codigo": "72821-IIUO-111",
   "nombre": "Tablet",
   "descripcion": "Tablet All Home",
   "categoria": "Tablet",
   "marca": "All Home",
   "imagen": "https://medias.musimundo.com/medias/00474011-144878-144878-01-144878-01.jpg-size515?context=bWFzdGVyfGltYWdlc3w0ODMyNnxpbWFnZS9qcGVnfGg1OS9oNGYvMTAzMzE4NjgwMzcxNTAvMDA0NzQwMTEtMTQ0ODc4LTE0NDg3OF8wMS0xNDQ4NzhfMDEuanBnX3NpemU1MTV8ZWUyMjUzYTU5NWMzMjc3ODE1NDkxNGIxZDczNmYwOGY0NWRkNjIyMDBjYmM5Zjg4OWRhNmUyMzQxZTVhNTU3YQ",
   "hoja_datos": "https://www.gsmarena.com/samsung_galaxy_tab_a8_10_5_(2021)-11265.php",
   "stock": 33,
   "precio": 39077,
   "fecha": "18-02-22",
   "hora": "04:36"
 },
 {
   "codigo": "84847-LQWO-11",
   "nombre": "Placas Electronicas",
   "descripcion": "Arduino Uno",
   "categoria": "Placas Electronicas",
   "marca": "Arduino",
   "imagen": "https://www.hwlibre.com/wp-content/uploads/2019/11/arduino-uno.jpg",
   "hoja_datos": "https://biblioteca.ulpgc.es/sites/default/files/repositorio_de_docum152/biblioteca_ing/ficha-tecnica-piezas-arduino.pdf",
   "stock": 45,
   "precio": 2500,
   "fecha": "19-02-22",
   "hora": "05:36"
 },
 {
   "codigo": "2222-LAOSI-88",
   "nombre": "Placas Electronicas",
   "descripcion": "Arduino Mega",
   "categoria": "Placas Electronicas",
   "marca": "Arduino",
   "imagen": "https://www.hwlibre.com/wp-content/uploads/2019/11/arduino-uno.jpg",
   "hoja_datos": "https://biblioteca.ulpgc.es/sites/default/files/repositorio_de_docum152/biblioteca_ing/ficha-tecnica-piezas-arduino.pdf",
   "stock": 22,
   "precio": 3000,
   "fecha": "20-02-22",
   "hora": "06:36"
 },
 {
   "codigo": "4566-LAOP-09233",
   "nombre": "Mouse Gamer Celetron",
   "descripcion": "Mouse Gamer RGB",
   "categoria": "Gamer",
   "marca": "Celetron",
   "imagen": "https://http2.mlstatic.com/D_NQ_NP_872628-MLA31587029743_072019-O.webp",
   "hoja_datos": "https://fichastecnicas.pchmayoreo.com/910-005879.pdf",
   "stock": 45,
   "precio": 2990,
   "fecha": "21-02-22",
   "hora": "07:36"
 },
 {
   "codigo": "92872-JJU-98",
   "nombre": "Cable MicroUsb ",
   "descripcion": "Cable MicroUSB 3.0",
   "categoria": "Generales",
   "marca": "Nath",
   "imagen": "https://http2.mlstatic.com/D_NQ_NP_2X_979929-MLA31116328644_062019-F.webp",
   "hoja_datos": "https://www.mouser.com/pdfdocs/HiroseZX62Datasheet24200011.pdf",
   "stock": 44,
   "precio": 3400,
   "fecha": "22-02-22",
   "hora": "08:36"
 },
 {
   "codigo": "222-9AKL-QQP",
   "nombre": "Cable Usb tipo c",
   "descripcion": "Cable Usb tipo C",
   "categoria": "Generales",
   "marca": "Samsung",
   "imagen": "https://http2.mlstatic.com/D_NQ_NP_2X_979929-MLA31116328644_062019-F.webp",
   "hoja_datos": "https://www.mouser.com/pdfdocs/HiroseZX62Datasheet24200011.pdf",
   "stock": 32,
   "precio": 4500,
   "fecha": "23-02-22",
   "hora": "09:36"
 },
 {
   "codigo": "444-8AA-DJDA",
   "nombre": "Placas Electronicas",
   "descripcion": "Modulo conexión de red arduino",
   "categoria": "Placas Electronicas",
   "marca": "Arduino",
   "imagen": "https://www.hwlibre.com/wp-content/uploads/2019/11/arduino-uno.jpg",
   "hoja_datos": "ESP8266 Datasheet - ESP8266EX WiFi Module - Espressif (datasheetcafe.com)",
   "stock": 11,
   "precio": 3990,
   "fecha": "24-02-22",
   "hora": "10:36"
 },
 {
   "codigo": "8821-99AK-22",
   "nombre": "Esp8266 LORA ",
   "descripcion": "Esp8266 Modulo WIFI LORA",
   "categoria": "Placas Electronicas",
   "marca": "Lora",
   "imagen": "https://http2.mlstatic.com/D_NQ_NP_2X_940808-MLA40012110524_122019-F.webp",
   "hoja_datos": "ESP8266 Datasheet - ESP8266EX WiFi Module - Espressif (datasheetcafe.com)",
   "stock": 78,
   "precio": 4500,
   "fecha": "25-02-22",
   "hora": "11:36"
 },
 {
   "codigo": "2233-DSASD-33",
   "nombre": "Switch 4 Puertos",
   "descripcion": "Swith Conexión LAN 4 puertos",
   "categoria": "Redes",
   "marca": "Cisco",
   "imagen": "https://cdn.shopify.com/s/files/1/0052/5395/5651/products/1_3b9d2adc-0e87-4ae7-8937-9ded45e81846_2048x2048.jpg?v=1616639206",
   "hoja_datos": "Cisco Catalyst 9300 Series Switches Data Sheet - Cisco",
   "stock": 45,
   "precio": 6500,
   "fecha": "26-02-22",
   "hora": "12:36"
 },
 {
   "codigo": "44-DHJ-YY",
   "nombre": "Switch 16 Puertos",
   "descripcion": "Swith Conexión LAN 16 puertos FAST-ETHERNET",
   "categoria": "Redes",
   "marca": "Cisco",
   "imagen": "https://cdn.shopify.com/s/files/1/0052/5395/5651/products/1_3b9d2adc-0e87-4ae7-8937-9ded45e81846_2048x2048.jpg?v=1616639206",
   "hoja_datos": "Cisco Catalyst 9300 Series Switches Data Sheet - Cisco",
   "stock": 56,
   "precio": 7600,
   "fecha": "27-02-22",
   "hora": "13:36"
 },
 {
   "codigo": "333-HAKU-819S",
   "nombre": "Cable UTP Ethernet Cat 6",
   "descripcion": "Cable UTF Categoría 6 300 MB/s x100 mts",
   "categoria": "Redes",
   "marca": "Nulibash",
   "imagen": "https://2.bp.blogspot.com/-OABqGsG-bK8/WeTigr8twxI/AAAAAAAAF40/g3g70dj9TvcisRzjGbmxlf47YRpqX9aPQCLcBGAs/s1600/todo-acerca-de-cables-de-red-4.jpg",
   "hoja_datos": "https://its.dlink.co.in/assets/patt_1529307287.pdf",
   "stock": 34,
   "precio": 4500,
   "fecha": "28-02-22",
   "hora": "14:36"
 },
 {
   "codigo": "3345-JUDHY-2382",
   "nombre": "Cable UTP Cat 5",
   "descripcion": "Cable UTP Cat 5 x100 mts",
   "categoria": "Redes",
   "marca": "Nulibash",
   "imagen": "https://2.bp.blogspot.com/-OABqGsG-bK8/WeTigr8twxI/AAAAAAAAF40/g3g70dj9TvcisRzjGbmxlf47YRpqX9aPQCLcBGAs/s1600/todo-acerca-de-cables-de-red-4.jpg",
   "hoja_datos": "https://its.dlink.co.in/assets/patt_1529307287.pdf",
   "stock": 23,
   "precio": 4400,
   "fecha": "01-03-22",
   "hora": "15:36"
 },
 {
   "codigo": "94844-HJAU89",
   "nombre": "Teclado Mecanico",
   "descripcion": "Teclado Mecanico",
   "categoria": "Gamer",
   "marca": "Juui",
   "imagen": "https://2.bp.blogspot.com/-OABqGsG-bK8/WeTigr8twxI/AAAAAAAAF40/g3g70dj9TvcisRzjGbmxlf47YRpqX9aPQCLcBGAs/s1600/todo-acerca-de-cables-de-red-4.jpg",
   "hoja_datos": "https://www.megga.com.ar/img_productos/03031549_ManualTecladoMecnicoXK800.pdf",
   "stock": 11,
   "precio": 3200,
   "fecha": "02-03-22",
   "hora": "16:36"
 },
 {
   "codigo": "2661-KKLA-12",
   "nombre": "Auricular Bluetooth T2",
   "descripcion": "Auricular Bluetooth Apple todos los colores",
   "categoria": "Generales",
   "marca": "Apple",
   "imagen": "captura-de-pantalla-2020-05-09-a-las-19-38-361-23a92b269c0162bd8c15989953224238-640-0.png (614×615) (d3ugyf2ht6aenh.cloudfront.net)",
   "hoja_datos": "Mi True Wireless Earbuds (appmifile.com)",
   "stock": 40,
   "precio": 2900,
   "fecha": "03-03-22",
   "hora": "17:36"
 },
 {
   "codigo": "880-KJL-88Y5",
   "nombre": "Microfono de pc Steaming",
   "descripcion": "Microfono Streaming Condensador PC",
   "categoria": "Generales",
   "marca": "Gezatek",
   "imagen": "imagen (640×640)",
   "hoja_datos": "Mi True Wireless Earbuds (appmifile.com)",
   "stock": 20,
   "precio": 3400,
   "fecha": "04-03-22",
   "hora": "18:36"
 }
]